[gd_scene load_steps=4 format=2]

[ext_resource path="res://icon.png" type="Texture" id=1]
[ext_resource path="res://Triggers/TriggerHealthGiver/TriggerHealthGiver.gd" type="Script" id=2]

[sub_resource type="SpriteFrames" id=1]
animations = [ {
"frames": [ ExtResource( 1 ) ],
"loop": true,
"name": "default",
"speed": 5.0
} ]

[node name="TriggerHealthGiver" type="Position2D" groups=[
"Items",
]]
modulate = Color( 0.556863, 0.0117647, 0.0117647, 1 )
script = ExtResource( 2 )

[node name="AnimatedSprite" type="AnimatedSprite" parent="."]
frames = SubResource( 1 )
