[gd_resource type="Resource" load_steps=2 format=2]

[sub_resource type="GDScript" id=1]
script/source = "extends Resource

export (int) var DefaultRounds : int = 0
export (int) var MaxRoundsCarried : int = 0
export (float) var FiringFreq : float = 3.0
export (float) var IdealRange : float = 50.0
export (float) var MaxSpeed : float = 5.0
export (float) var SoundRange : float = 100.0
export (int) var NumBallsInShell : int = 5
export (float) var Spread : float = 0.5
"

[resource]
script = SubResource( 1 )
DefaultRounds = 15
MaxRoundsCarried = 50
FiringFreq = 1.0
IdealRange = 100.0
MaxSpeed = 50.0
SoundRange = 400.0
NumBallsInShell = 5
Spread = 0.33
