[gd_scene load_steps=5 format=2]

[ext_resource path="res://Projectiles/RocketProjectile/RocketProjectile.gd" type="Script" id=1]
[ext_resource path="res://icon.png" type="Texture" id=2]

[sub_resource type="CapsuleShape2D" id=1]
radius = 6.25429
height = 4.14319

[sub_resource type="SpriteFrames" id=2]
animations = [ {
"frames": [ ExtResource( 2 ) ],
"loop": true,
"name": "default",
"speed": 5.0
} ]

[node name="RocketProjectile" type="RigidBody2D"]
contacts_reported = 1
contact_monitor = true
script = ExtResource( 1 )

[node name="CollisionShape2D" type="CollisionShape2D" parent="."]
rotation = 1.5708
shape = SubResource( 1 )

[node name="AnimatedSprite" type="AnimatedSprite" parent="."]
modulate = Color( 0.72549, 0.180392, 0.180392, 1 )
rotation = 1.5708
scale = Vector2( 0.2, 0.2 )
frames = SubResource( 2 )
[connection signal="body_entered" from="." to="." method="_on_BoltProjectile_body_entered"]
