[gd_resource type="Resource" load_steps=2 format=2]

[sub_resource type="GDScript" id=1]
script/source = "extends Resource

export (int) var DefaultRounds : int = 0
export (int) var MaxRoundsCarried : int = 0
export (float) var FiringFreq : float = 3.0
export (float) var IdealRange : float = 50.0
export (float) var MaxSpeed : float = 5.0
export (float) var SoundRange : float = 100.0
export (float) var Damage : float = 50.0
"

[resource]
script = SubResource( 1 )
DefaultRounds = 15
MaxRoundsCarried = 50
FiringFreq = 1.0
IdealRange = 200.0
MaxSpeed = 5000.0
SoundRange = 400.0
Damage = 50.0
